<?xml version="1.0" encoding="utf-8"?>
<!-- Generator: Adobe Illustrator 16.0.0, SVG Export Plug-In . SVG Version: 6.00 Build 0)  -->
<!DOCTYPE svg PUBLIC "-//W3C//DTD SVG 1.1//EN" "http://www.w3.org/Graphics/SVG/1.1/DTD/svg11.dtd">
<svg version="1.1" id="Layer_1" xmlns="http://www.w3.org/2000/svg" xmlns:xlink="http://www.w3.org/1999/xlink" x="0px" y="0px"
	 width="90px" height="7px" viewBox="0 0 90 7" enable-background="new 0 0 90 7" xml:space="preserve">
<line fill="none" stroke="#046F97" stroke-width="5" stroke-miterlimit="10" x1="0" y1="2.448" x2="90.604" y2="2.448"/>
</svg>
